{
    "code": null,
    "version": "1.0",
    "success": true,
    "error": 0,
    "errorMessage": null,
    "exceptionMessage": null,
        "data": {
    "currentPage": 1,
        "pageData": [
        {
            "name": "船主是我",
            "grade": 3,
            "number": "123123",
            "phone":'11111',
            "type": 5
        },
        {
            "name": "船主是我",
            "grade": 1,
            "number": "123124",
            "phone":'2222222',
            "type": 7
        },
        {
            "name": "船主是我",
            "grade": 3,
            "number": "123125",
            "phone":'3333',
            "type": 5
        }
    ],
    	"pageSize": 1,
        "startRow": 0,
        "totalPages": 7,
        "totalRows": 74
    },
    "alertType": 0,
    "alertMsg": null
}
